%YAML 1.1
%TAG !u! tag:unity3d.com,2011:
--- !u!74 &7400000
AnimationClip:
  m_ObjectHideFlags: 0
  m_PrefabParentObject: {fileID: 0}
  m_PrefabInternal: {fileID: 0}
  m_Name: HumanArcheryAnim
  serializedVersion: 6
  m_Legacy: 0
  m_Compressed: 0
  m_UseHighQualityCurve: 1
  m_RotationCurves: []
  m_CompressedRotationCurves: []
  m_PositionCurves:
  - curve:
      serializedVersion: 2
      m_Curve:
      - time: 0
        value: {x: 2.21338558, y: .853945851, z: -.858264208}
        inSlope: {x: -.37928772, y: -.0908911005, z: 7.4007535}
        outSlope: {x: -.37928772, y: -.0908911005, z: 7.4007535}
        tangentMode: 0
      - time: .483500004
        value: {x: 2.02999997, y: .810000002, z: 2.72000003}
        inSlope: {x: -.37928772, y: -.0908911005, z: 7.4007535}
        outSlope: {x: -.37928772, y: -.0908911005, z: 7.4007535}
        tangentMode: 0
      m_PreInfinity: 2
      m_PostInfinity: 2
    path: flechaanim1
  - curve:
      serializedVersion: 2
      m_Curve:
      - time: 0
        value: {x: .343310118, y: .847470701, z: -.809722781}
        inSlope: {x: -.379131585, y: -.0774988607, z: 7.40376997}
        outSlope: {x: -.379131585, y: -.0774988607, z: 7.40376997}
        tangentMode: 0
      - time: .483500004
        value: {x: .159999996, y: .810000002, z: 2.76999998}
        inSlope: {x: -.379131585, y: -.0774988607, z: 7.40376997}
        outSlope: {x: -.379131585, y: -.0774988607, z: 7.40376997}
        tangentMode: 0
      m_PreInfinity: 2
      m_PostInfinity: 2
    path: flechaanim1.004
  - curve:
      serializedVersion: 2
      m_Curve:
      - time: 0
        value: {x: -1.85566032, y: .853945851, z: -.858264208}
        inSlope: {x: -.360578388, y: -.0908911005, z: 7.4007535}
        outSlope: {x: -.360578388, y: -.0908911005, z: 7.4007535}
        tangentMode: 0
      - time: .483500004
        value: {x: -2.02999997, y: .810000002, z: 2.72000003}
        inSlope: {x: -.360578388, y: -.0908911005, z: 7.4007535}
        outSlope: {x: -.360578388, y: -.0908911005, z: 7.4007535}
        tangentMode: 0
      m_PreInfinity: 2
      m_PostInfinity: 2
    path: flechaanim1.008
  - curve:
      serializedVersion: 2
      m_Curve:
      - time: 2.51666665
        value: {x: 2.15416169, y: .792085469, z: -.860979736}
        inSlope: {x: -.381024122, y: -.0870733783, z: 7.49168205}
        outSlope: {x: -.381024122, y: -.0870733783, z: 7.49168205}
        tangentMode: 0
      - time: 3
        value: {x: 1.97000003, y: .75, z: 2.75999999}
        inSlope: {x: -.381024122, y: -.0870733783, z: 7.49168205}
        outSlope: {x: -.381024122, y: -.0870733783, z: 7.49168205}
        tangentMode: 0
      m_PreInfinity: 2
      m_PostInfinity: 2
    path: flechaanim1.001
  - curve:
      serializedVersion: 2
      m_Curve:
      - time: 2.51666665
        value: {x: .487568617, y: .915806174, z: -.905811429}
        inSlope: {x: -.367383331, y: -.0947713852, z: 7.50167894}
        outSlope: {x: -.367383331, y: -.0947713852, z: 7.50167894}
        tangentMode: 0
      - time: 3
        value: {x: .310000002, y: .870000005, z: 2.72000003}
        inSlope: {x: -.367383331, y: -.0947713852, z: 7.50167894}
        outSlope: {x: -.367383331, y: -.0947713852, z: 7.50167894}
        tangentMode: 0
      m_PreInfinity: 2
      m_PostInfinity: 2
    path: flechaanim1.005
  - curve:
      serializedVersion: 2
      m_Curve:
      - time: 2.51666665
        value: {x: -1.91488433, y: .792085469, z: -.860979736}
        inSlope: {x: -.382997721, y: -.0870733783, z: 7.49168205}
        outSlope: {x: -.382997721, y: -.0870733783, z: 7.49168205}
        tangentMode: 0
      - time: 3
        value: {x: -2.0999999, y: .75, z: 2.75999999}
        inSlope: {x: -.382997721, y: -.0870733783, z: 7.49168205}
        outSlope: {x: -.382997721, y: -.0870733783, z: 7.49168205}
        tangentMode: 0
      m_PreInfinity: 2
      m_PostInfinity: 2
    path: flechaanim1.009
  - curve:
      serializedVersion: 2
      m_Curve:
      - time: 5
        value: {x: 2.2863791, y: .915806174, z: -.905811429}
        inSlope: {x: -.0413653553, y: -.0963679701, z: 6.89934587}
        outSlope: {x: -.0413653553, y: -.0963679701, z: 6.89934587}
        tangentMode: 0
      - time: 5.51683331
        value: {x: 2.2650001, y: .865999997, z: 2.66000009}
        inSlope: {x: -.0413653553, y: -.0963679701, z: 6.89934587}
        outSlope: {x: -.0413653553, y: -.0963679701, z: 6.89934587}
        tangentMode: 0
      m_PreInfinity: 2
      m_PostInfinity: 2
    path: flechaanim1.002
  - curve:
      serializedVersion: 2
      m_Curve:
      - time: 5
        value: {x: .35535121, y: .792085469, z: -.860979736}
        inSlope: {x: -.0393767208, y: -.089168936, z: 6.88999701}
        outSlope: {x: -.0393767208, y: -.089168936, z: 6.88999701}
        tangentMode: 0
      - time: 5.51683331
        value: {x: .335000008, y: .745999992, z: 2.70000005}
        inSlope: {x: -.0393767208, y: -.089168936, z: 6.88999701}
        outSlope: {x: -.0393767208, y: -.089168936, z: 6.88999701}
        tangentMode: 0
      m_PreInfinity: 2
      m_PostInfinity: 2
    path: flechaanim1.006
  - curve:
      serializedVersion: 2
      m_Curve:
      - time: 5
        value: {x: -1.78266692, y: .915806174, z: -.905811429}
        inSlope: {x: -.0432112738, y: -.0963679701, z: 6.89934587}
        outSlope: {x: -.0432112738, y: -.0963679701, z: 6.89934587}
        tangentMode: 0
      - time: 5.51683331
        value: {x: -1.80499995, y: .865999997, z: 2.66000009}
        inSlope: {x: -.0432112738, y: -.0963679701, z: 6.89934587}
        outSlope: {x: -.0432112738, y: -.0963679701, z: 6.89934587}
        tangentMode: 0
      m_PreInfinity: 2
      m_PostInfinity: 2
    path: flechaanim1.010
  - curve:
      serializedVersion: 2
      m_Curve:
      - time: 7.51666689
        value: {x: 2.1421206, y: .847470701, z: -.809722781}
        inSlope: {x: .161129922, y: .667302191, z: 7.44770575}
        outSlope: {x: .161129922, y: .667302191, z: 7.44770575}
        tangentMode: 0
      - time: 8
        value: {x: 2.22000003, y: 1.16999996, z: 2.78999996}
        inSlope: {x: .161129922, y: .667302191, z: 7.44770575}
        outSlope: {x: .161129922, y: .667302191, z: 7.44770575}
        tangentMode: 0
      m_PreInfinity: 2
      m_PostInfinity: 2
    path: flechaanim1.003
  - curve:
      serializedVersion: 2
      m_Curve:
      - time: 7.51666689
        value: {x: .4145751, y: .853945851, z: -.858264208}
        inSlope: {x: .176741257, y: .653905332, z: 7.46537781}
        outSlope: {x: .176741257, y: .653905332, z: 7.46537781}
        tangentMode: 0
      - time: 8
        value: {x: .5, y: 1.16999996, z: 2.75}
        inSlope: {x: .176741257, y: .653905332, z: 7.46537781}
        outSlope: {x: .176741257, y: .653905332, z: 7.46537781}
        tangentMode: 0
      m_PreInfinity: 2
      m_PostInfinity: 2
    path: flechaanim1.007
  - curve:
      serializedVersion: 2
      m_Curve:
      - time: 7.51666689
        value: {x: -1.9269253, y: .847470701, z: -.809722781}
        inSlope: {x: .159155816, y: .667302191, z: 7.44770575}
        outSlope: {x: .159155816, y: .667302191, z: 7.44770575}
        tangentMode: 0
      - time: 8
        value: {x: -1.85000002, y: 1.16999996, z: 2.78999996}
        inSlope: {x: .159155816, y: .667302191, z: 7.44770575}
        outSlope: {x: .159155816, y: .667302191, z: 7.44770575}
        tangentMode: 0
      m_PreInfinity: 2
      m_PostInfinity: 2
    path: flechaanim1.011
  m_ScaleCurves: []
  m_FloatCurves:
  - curve:
      serializedVersion: 2
      m_Curve:
      - time: 0
        value: 0
        inSlope: Infinity
        outSlope: Infinity
        tangentMode: 31
      - time: 8
        value: 0
        inSlope: Infinity
        outSlope: Infinity
        tangentMode: 31
      m_PreInfinity: 2
      m_PostInfinity: 2
    attribute: m_IsActive
    path: Andamio
    classID: 1
    script: {fileID: 0}
  - curve:
      serializedVersion: 2
      m_Curve:
      - time: 0
        value: 0
        inSlope: Infinity
        outSlope: Infinity
        tangentMode: 31
      - time: 8
        value: 0
        inSlope: Infinity
        outSlope: Infinity
        tangentMode: 31
      m_PreInfinity: 2
      m_PostInfinity: 2
    attribute: m_Enabled
    path: Helmet
    classID: 137
    script: {fileID: 0}
  m_PPtrCurves: []
  m_SampleRate: 60
  m_WrapMode: 0
  m_Bounds:
    m_Center: {x: 0, y: 0, z: 0}
    m_Extent: {x: 0, y: 0, z: 0}
  m_ClipBindingConstant:
    genericBindings:
    - path: 2457636629
      attribute: 1
      script: {fileID: 0}
      classID: 4
      customType: 0
      isPPtrCurve: 0
    - path: 2870288197
      attribute: 1
      script: {fileID: 0}
      classID: 4
      customType: 0
      isPPtrCurve: 0
    - path: 2728612718
      attribute: 1
      script: {fileID: 0}
      classID: 4
      customType: 0
      isPPtrCurve: 0
    - path: 3682593738
      attribute: 1
      script: {fileID: 0}
      classID: 4
      customType: 0
      isPPtrCurve: 0
    - path: 3692179411
      attribute: 1
      script: {fileID: 0}
      classID: 4
      customType: 0
      isPPtrCurve: 0
    - path: 3584320504
      attribute: 1
      script: {fileID: 0}
      classID: 4
      customType: 0
      isPPtrCurve: 0
    - path: 1115077232
      attribute: 1
      script: {fileID: 0}
      classID: 4
      customType: 0
      isPPtrCurve: 0
    - path: 1159429737
      attribute: 1
      script: {fileID: 0}
      classID: 4
      customType: 0
      isPPtrCurve: 0
    - path: 3043224093
      attribute: 1
      script: {fileID: 0}
      classID: 4
      customType: 0
      isPPtrCurve: 0
    - path: 896633574
      attribute: 1
      script: {fileID: 0}
      classID: 4
      customType: 0
      isPPtrCurve: 0
    - path: 840716031
      attribute: 1
      script: {fileID: 0}
      classID: 4
      customType: 0
      isPPtrCurve: 0
    - path: 3261389451
      attribute: 1
      script: {fileID: 0}
      classID: 4
      customType: 0
      isPPtrCurve: 0
    - path: 2348513830
      attribute: 2086281974
      script: {fileID: 0}
      classID: 1
      customType: 0
      isPPtrCurve: 0
    - path: 2097605520
      attribute: 3305885265
      script: {fileID: 0}
      classID: 137
      customType: 0
      isPPtrCurve: 0
    pptrCurveMapping: []
  m_AnimationClipSettings:
    serializedVersion: 2
    m_StartTime: 0
    m_StopTime: 8
    m_OrientationOffsetY: 0
    m_Level: 0
    m_CycleOffset: 0
    m_LoopTime: 1
    m_LoopBlend: 0
    m_LoopBlendOrientation: 0
    m_LoopBlendPositionY: 0
    m_LoopBlendPositionXZ: 0
    m_KeepOriginalOrientation: 0
    m_KeepOriginalPositionY: 1
    m_KeepOriginalPositionXZ: 0
    m_HeightFromFeet: 0
    m_Mirror: 0
  m_EditorCurves:
  - curve:
      serializedVersion: 2
      m_Curve:
      - time: 0
        value: 2.21338558
        inSlope: -.37928772
        outSlope: -.37928772
        tangentMode: 10
      - time: .483500004
        value: 2.02999997
        inSlope: -.37928772
        outSlope: -.37928772
        tangentMode: 10
      m_PreInfinity: 2
      m_PostInfinity: 2
    attribute: m_LocalPosition.x
    path: flechaanim1
    classID: 4
    script: {fileID: 0}
  - curve:
      serializedVersion: 2
      m_Curve:
      - time: 0
        value: .853945851
        inSlope: -.0908911005
        outSlope: -.0908911005
        tangentMode: 10
      - time: .483500004
        value: .810000002
        inSlope: -.0908911005
        outSlope: -.0908911005
        tangentMode: 10
      m_PreInfinity: 2
      m_PostInfinity: 2
    attribute: m_LocalPosition.y
    path: flechaanim1
    classID: 4
    script: {fileID: 0}
  - curve:
      serializedVersion: 2
      m_Curve:
      - time: 0
        value: -.858264208
        inSlope: 7.4007535
        outSlope: 7.4007535
        tangentMode: 10
      - time: .483500004
        value: 2.72000003
        inSlope: 7.4007535
        outSlope: 7.4007535
        tangentMode: 10
      m_PreInfinity: 2
      m_PostInfinity: 2
    attribute: m_LocalPosition.z
    path: flechaanim1
    classID: 4
    script: {fileID: 0}
  - curve:
      serializedVersion: 2
      m_Curve:
      - time: 0
        value: .343310118
        inSlope: -.379131585
        outSlope: -.379131585
        tangentMode: 10
      - time: .483500004
        value: .159999996
        inSlope: -.379131585
        outSlope: -.379131585
        tangentMode: 10
      m_PreInfinity: 2
      m_PostInfinity: 2
    attribute: m_LocalPosition.x
    path: flechaanim1.004
    classID: 4
    script: {fileID: 0}
  - curve:
      serializedVersion: 2
      m_Curve:
      - time: 0
        value: .847470701
        inSlope: -.0774988607
        outSlope: -.0774988607
        tangentMode: 10
      - time: .483500004
        value: .810000002
        inSlope: -.0774988607
        outSlope: -.0774988607
        tangentMode: 10
      m_PreInfinity: 2
      m_PostInfinity: 2
    attribute: m_LocalPosition.y
    path: flechaanim1.004
    classID: 4
    script: {fileID: 0}
  - curve:
      serializedVersion: 2
      m_Curve:
      - time: 0
        value: -.809722781
        inSlope: 7.40376997
        outSlope: 7.40376997
        tangentMode: 10
      - time: .483500004
        value: 2.76999998
        inSlope: 7.40376997
        outSlope: 7.40376997
        tangentMode: 10
      m_PreInfinity: 2
      m_PostInfinity: 2
    attribute: m_LocalPosition.z
    path: flechaanim1.004
    classID: 4
    script: {fileID: 0}
  - curve:
      serializedVersion: 2
      m_Curve:
      - time: 0
        value: -1.85566032
        inSlope: -.360578388
        outSlope: -.360578388
        tangentMode: 10
      - time: .483500004
        value: -2.02999997
        inSlope: -.360578388
        outSlope: -.360578388
        tangentMode: 10
      m_PreInfinity: 2
      m_PostInfinity: 2
    attribute: m_LocalPosition.x
    path: flechaanim1.008
    classID: 4
    script: {fileID: 0}
  - curve:
      serializedVersion: 2
      m_Curve:
      - time: 0
        value: .853945851
        inSlope: -.0908911005
        outSlope: -.0908911005
        tangentMode: 10
      - time: .483500004
        value: .810000002
        inSlope: -.0908911005
        outSlope: -.0908911005
        tangentMode: 10
      m_PreInfinity: 2
      m_PostInfinity: 2
    attribute: m_LocalPosition.y
    path: flechaanim1.008
    classID: 4
    script: {fileID: 0}
  - curve:
      serializedVersion: 2
      m_Curve:
      - time: 0
        value: -.858264208
        inSlope: 7.4007535
        outSlope: 7.4007535
        tangentMode: 10
      - time: .483500004
        value: 2.72000003
        inSlope: 7.4007535
        outSlope: 7.4007535
        tangentMode: 10
      m_PreInfinity: 2
      m_PostInfinity: 2
    attribute: m_LocalPosition.z
    path: flechaanim1.008
    classID: 4
    script: {fileID: 0}
  - curve:
      serializedVersion: 2
      m_Curve:
      - time: 2.51666665
        value: 2.15416169
        inSlope: -.381024122
        outSlope: -.381024122
        tangentMode: 10
      - time: 3
        value: 1.97000003
        inSlope: -.381024122
        outSlope: -.381024122
        tangentMode: 10
      m_PreInfinity: 2
      m_PostInfinity: 2
    attribute: m_LocalPosition.x
    path: flechaanim1.001
    classID: 4
    script: {fileID: 0}
  - curve:
      serializedVersion: 2
      m_Curve:
      - time: 2.51666665
        value: .792085469
        inSlope: -.0870733783
        outSlope: -.0870733783
        tangentMode: 10
      - time: 3
        value: .75
        inSlope: -.0870733783
        outSlope: -.0870733783
        tangentMode: 10
      m_PreInfinity: 2
      m_PostInfinity: 2
    attribute: m_LocalPosition.y
    path: flechaanim1.001
    classID: 4
    script: {fileID: 0}
  - curve:
      serializedVersion: 2
      m_Curve:
      - time: 2.51666665
        value: -.860979736
        inSlope: 7.49168205
        outSlope: 7.49168205
        tangentMode: 10
      - time: 3
        value: 2.75999999
        inSlope: 7.49168205
        outSlope: 7.49168205
        tangentMode: 10
      m_PreInfinity: 2
      m_PostInfinity: 2
    attribute: m_LocalPosition.z
    path: flechaanim1.001
    classID: 4
    script: {fileID: 0}
  - curve:
      serializedVersion: 2
      m_Curve:
      - time: 2.51666665
        value: .487568617
        inSlope: -.367383331
        outSlope: -.367383331
        tangentMode: 10
      - time: 3
        value: .310000002
        inSlope: -.367383331
        outSlope: -.367383331
        tangentMode: 10
      m_PreInfinity: 2
      m_PostInfinity: 2
    attribute: m_LocalPosition.x
    path: flechaanim1.005
    classID: 4
    script: {fileID: 0}
  - curve:
      serializedVersion: 2
      m_Curve:
      - time: 2.51666665
        value: .915806174
        inSlope: -.0947713852
        outSlope: -.0947713852
        tangentMode: 10
      - time: 3
        value: .870000005
        inSlope: -.0947713852
        outSlope: -.0947713852
        tangentMode: 10
      m_PreInfinity: 2
      m_PostInfinity: 2
    attribute: m_LocalPosition.y
    path: flechaanim1.005
    classID: 4
    script: {fileID: 0}
  - curve:
      serializedVersion: 2
      m_Curve:
      - time: 2.51666665
        value: -.905811429
        inSlope: 7.50167894
        outSlope: 7.50167894
        tangentMode: 10
      - time: 3
        value: 2.72000003
        inSlope: 7.50167894
        outSlope: 7.50167894
        tangentMode: 10
      m_PreInfinity: 2
      m_PostInfinity: 2
    attribute: m_LocalPosition.z
    path: flechaanim1.005
    classID: 4
    script: {fileID: 0}
  - curve:
      serializedVersion: 2
      m_Curve:
      - time: 2.51666665
        value: -1.91488433
        inSlope: -.382997721
        outSlope: -.382997721
        tangentMode: 10
      - time: 3
        value: -2.0999999
        inSlope: -.382997721
        outSlope: -.382997721
        tangentMode: 10
      m_PreInfinity: 2
      m_PostInfinity: 2
    attribute: m_LocalPosition.x
    path: flechaanim1.009
    classID: 4
    script: {fileID: 0}
  - curve:
      serializedVersion: 2
      m_Curve:
      - time: 2.51666665
        value: .792085469
        inSlope: -.0870733783
        outSlope: -.0870733783
        tangentMode: 10
      - time: 3
        value: .75
        inSlope: -.0870733783
        outSlope: -.0870733783
        tangentMode: 10
      m_PreInfinity: 2
      m_PostInfinity: 2
    attribute: m_LocalPosition.y
    path: flechaanim1.009
    classID: 4
    script: {fileID: 0}
  - curve:
      serializedVersion: 2
      m_Curve:
      - time: 2.51666665
        value: -.860979736
        inSlope: 7.49168205
        outSlope: 7.49168205
        tangentMode: 10
      - time: 3
        value: 2.75999999
        inSlope: 7.49168205
        outSlope: 7.49168205
        tangentMode: 10
      m_PreInfinity: 2
      m_PostInfinity: 2
    attribute: m_LocalPosition.z
    path: flechaanim1.009
    classID: 4
    script: {fileID: 0}
  - curve:
      serializedVersion: 2
      m_Curve:
      - time: 5
        value: 2.2863791
        inSlope: -.0413653553
        outSlope: -.0413653553
        tangentMode: 10
      - time: 5.51683331
        value: 2.2650001
        inSlope: -.0413653553
        outSlope: -.0413653553
        tangentMode: 10
      m_PreInfinity: 2
      m_PostInfinity: 2
    attribute: m_LocalPosition.x
    path: flechaanim1.002
    classID: 4
    script: {fileID: 0}
  - curve:
      serializedVersion: 2
      m_Curve:
      - time: 5
        value: .915806174
        inSlope: -.0963679701
        outSlope: -.0963679701
        tangentMode: 10
      - time: 5.51683331
        value: .865999997
        inSlope: -.0963679701
        outSlope: -.0963679701
        tangentMode: 10
      m_PreInfinity: 2
      m_PostInfinity: 2
    attribute: m_LocalPosition.y
    path: flechaanim1.002
    classID: 4
    script: {fileID: 0}
  - curve:
      serializedVersion: 2
      m_Curve:
      - time: 5
        value: -.905811429
        inSlope: 6.89934587
        outSlope: 6.89934587
        tangentMode: 10
      - time: 5.51683331
        value: 2.66000009
        inSlope: 6.89934587
        outSlope: 6.89934587
        tangentMode: 10
      m_PreInfinity: 2
      m_PostInfinity: 2
    attribute: m_LocalPosition.z
    path: flechaanim1.002
    classID: 4
    script: {fileID: 0}
  - curve:
      serializedVersion: 2
      m_Curve:
      - time: 5
        value: .35535121
        inSlope: -.0393767208
        outSlope: -.0393767208
        tangentMode: 10
      - time: 5.51683331
        value: .335000008
        inSlope: -.0393767208
        outSlope: -.0393767208
        tangentMode: 10
      m_PreInfinity: 2
      m_PostInfinity: 2
    attribute: m_LocalPosition.x
    path: flechaanim1.006
    classID: 4
    script: {fileID: 0}
  - curve:
      serializedVersion: 2
      m_Curve:
      - time: 5
        value: .792085469
        inSlope: -.089168936
        outSlope: -.089168936
        tangentMode: 10
      - time: 5.51683331
        value: .745999992
        inSlope: -.089168936
        outSlope: -.089168936
        tangentMode: 10
      m_PreInfinity: 2
      m_PostInfinity: 2
    attribute: m_LocalPosition.y
    path: flechaanim1.006
    classID: 4
    script: {fileID: 0}
  - curve:
      serializedVersion: 2
      m_Curve:
      - time: 5
        value: -.860979736
        inSlope: 6.88999701
        outSlope: 6.88999701
        tangentMode: 10
      - time: 5.51683331
        value: 2.70000005
        inSlope: 6.88999701
        outSlope: 6.88999701
        tangentMode: 10
      m_PreInfinity: 2
      m_PostInfinity: 2
    attribute: m_LocalPosition.z
    path: flechaanim1.006
    classID: 4
    script: {fileID: 0}
  - curve:
      serializedVersion: 2
      m_Curve:
      - time: 5
        value: -1.78266692
        inSlope: -.0432112738
        outSlope: -.0432112738
        tangentMode: 10
      - time: 5.51683331
        value: -1.80499995
        inSlope: -.0432112738
        outSlope: -.0432112738
        tangentMode: 10
      m_PreInfinity: 2
      m_PostInfinity: 2
    attribute: m_LocalPosition.x
    path: flechaanim1.010
    classID: 4
    script: {fileID: 0}
  - curve:
      serializedVersion: 2
      m_Curve:
      - time: 5
        value: .915806174
        inSlope: -.0963679701
        outSlope: -.0963679701
        tangentMode: 10
      - time: 5.51683331
        value: .865999997
        inSlope: -.0963679701
        outSlope: -.0963679701
        tangentMode: 10
      m_PreInfinity: 2
      m_PostInfinity: 2
    attribute: m_LocalPosition.y
    path: flechaanim1.010
    classID: 4
    script: {fileID: 0}
  - curve:
      serializedVersion: 2
      m_Curve:
      - time: 5
        value: -.905811429
        inSlope: 6.89934587
        outSlope: 6.89934587
        tangentMode: 10
      - time: 5.51683331
        value: 2.66000009
        inSlope: 6.89934587
        outSlope: 6.89934587
        tangentMode: 10
      m_PreInfinity: 2
      m_PostInfinity: 2
    attribute: m_LocalPosition.z
    path: flechaanim1.010
    classID: 4
    script: {fileID: 0}
  - curve:
      serializedVersion: 2
      m_Curve:
      - time: 7.51666689
        value: 2.1421206
        inSlope: .161129922
        outSlope: .161129922
        tangentMode: 10
      - time: 8
        value: 2.22000003
        inSlope: .161129922
        outSlope: .161129922
        tangentMode: 10
      m_PreInfinity: 2
      m_PostInfinity: 2
    attribute: m_LocalPosition.x
    path: flechaanim1.003
    classID: 4
    script: {fileID: 0}
  - curve:
      serializedVersion: 2
      m_Curve:
      - time: 7.51666689
        value: .847470701
        inSlope: .667302191
        outSlope: .667302191
        tangentMode: 10
      - time: 8
        value: 1.16999996
        inSlope: .667302191
        outSlope: .667302191
        tangentMode: 10
      m_PreInfinity: 2
      m_PostInfinity: 2
    attribute: m_LocalPosition.y
    path: flechaanim1.003
    classID: 4
    script: {fileID: 0}
  - curve:
      serializedVersion: 2
      m_Curve:
      - time: 7.51666689
        value: -.809722781
        inSlope: 7.44770575
        outSlope: 7.44770575
        tangentMode: 10
      - time: 8
        value: 2.78999996
        inSlope: 7.44770575
        outSlope: 7.44770575
        tangentMode: 10
      m_PreInfinity: 2
      m_PostInfinity: 2
    attribute: m_LocalPosition.z
    path: flechaanim1.003
    classID: 4
    script: {fileID: 0}
  - curve:
      serializedVersion: 2
      m_Curve:
      - time: 7.51666689
        value: .4145751
        inSlope: .176741257
        outSlope: .176741257
        tangentMode: 10
      - time: 8
        value: .5
        inSlope: .176741257
        outSlope: .176741257
        tangentMode: 10
      m_PreInfinity: 2
      m_PostInfinity: 2
    attribute: m_LocalPosition.x
    path: flechaanim1.007
    classID: 4
    script: {fileID: 0}
  - curve:
      serializedVersion: 2
      m_Curve:
      - time: 7.51666689
        value: .853945851
        inSlope: .653905332
        outSlope: .653905332
        tangentMode: 10
      - time: 8
        value: 1.16999996
        inSlope: .653905332
        outSlope: .653905332
        tangentMode: 10
      m_PreInfinity: 2
      m_PostInfinity: 2
    attribute: m_LocalPosition.y
    path: flechaanim1.007
    classID: 4
    script: {fileID: 0}
  - curve:
      serializedVersion: 2
      m_Curve:
      - time: 7.51666689
        value: -.858264208
        inSlope: 7.46537781
        outSlope: 7.46537781
        tangentMode: 10
      - time: 8
        value: 2.75
        inSlope: 7.46537781
        outSlope: 7.46537781
        tangentMode: 10
      m_PreInfinity: 2
      m_PostInfinity: 2
    attribute: m_LocalPosition.z
    path: flechaanim1.007
    classID: 4
    script: {fileID: 0}
  - curve:
      serializedVersion: 2
      m_Curve:
      - time: 7.51666689
        value: -1.9269253
        inSlope: .159155816
        outSlope: .159155816
        tangentMode: 10
      - time: 8
        value: -1.85000002
        inSlope: .159155816
        outSlope: .159155816
        tangentMode: 10
      m_PreInfinity: 2
      m_PostInfinity: 2
    attribute: m_LocalPosition.x
    path: flechaanim1.011
    classID: 4
    script: {fileID: 0}
  - curve:
      serializedVersion: 2
      m_Curve:
      - time: 7.51666689
        value: .847470701
        inSlope: .667302191
        outSlope: .667302191
        tangentMode: 10
      - time: 8
        value: 1.16999996
        inSlope: .667302191
        outSlope: .667302191
        tangentMode: 10
      m_PreInfinity: 2
      m_PostInfinity: 2
    attribute: m_LocalPosition.y
    path: flechaanim1.011
    classID: 4
    script: {fileID: 0}
  - curve:
      serializedVersion: 2
      m_Curve:
      - time: 7.51666689
        value: -.809722781
        inSlope: 7.44770575
        outSlope: 7.44770575
        tangentMode: 10
      - time: 8
        value: 2.78999996
        inSlope: 7.44770575
        outSlope: 7.44770575
        tangentMode: 10
      m_PreInfinity: 2
      m_PostInfinity: 2
    attribute: m_LocalPosition.z
    path: flechaanim1.011
    classID: 4
    script: {fileID: 0}
  - curve:
      serializedVersion: 2
      m_Curve:
      - time: 0
        value: 0
        inSlope: Infinity
        outSlope: Infinity
        tangentMode: 31
      - time: 8
        value: 0
        inSlope: Infinity
        outSlope: Infinity
        tangentMode: 31
      m_PreInfinity: 2
      m_PostInfinity: 2
    attribute: m_IsActive
    path: Andamio
    classID: 1
    script: {fileID: 0}
  - curve:
      serializedVersion: 2
      m_Curve:
      - time: 0
        value: 0
        inSlope: Infinity
        outSlope: Infinity
        tangentMode: 31
      - time: 8
        value: 0
        inSlope: Infinity
        outSlope: Infinity
        tangentMode: 31
      m_PreInfinity: 2
      m_PostInfinity: 2
    attribute: m_Enabled
    path: Helmet
    classID: 137
    script: {fileID: 0}
  m_EulerEditorCurves: []
  m_HasGenericRootTransform: 0
  m_HasMotionFloatCurves: 0
  m_GenerateMotionCurves: 0
  m_Events: []
