{
    "race": "ELVES",
    "type": "WATCHTOWER",
    "name": "Watch Tower",

    "attributes": {
        "resistance": 3,
        "wounds": 50,
        "capacity": 10,
        "timeToBuild": 30,
        "repairSpeed": 0.2,
        "sightRange": 50
    },

    "resources": {
        "wood": 100,
        "metal": 50,
        "food": 50
    },

    "abilities":
    [
        {
            "name": "Sell",
            "tooltipFlags": "HIDE"
        }, 
        {
            "ability": "ChangeWatchtowerDirection",
            "name": "Rotate",
        },
    ]
}
