{
    "race": "ELVES",
    "type": "MACHINE",
    "name": "War Machine",

    "attributes": {
        "weaponAbility": 3,
        "projectileAbility": 8,
        "strength": 5,
        "resistance": 5,
        "wounds": 30,

        "attackRate": 2,
        "movementRate": 0.6,
        "sightRange": 40,
        "rangedAttackNearest": 0,
        "rangedAttackFurthest": 80,
    	"projectileRadius": 2,
		"projectileScale": 2.5,
    	"projectileSpeed": 25,		
        "creationTime": 160,
        "foodConsumption": 0.6
    },

    "resources": {
        "wood": 120,
        "metal": 80,
        "food": 50
    }
}
