%YAML 1.1
%TAG !u! tag:unity3d.com,2011:
--- !u!74 &7400000
AnimationClip:
  m_ObjectHideFlags: 0
  m_PrefabParentObject: {fileID: 0}
  m_PrefabInternal: {fileID: 0}
  m_Name: humanmineanim
  serializedVersion: 6
  m_Legacy: 0
  m_Compressed: 0
  m_UseHighQualityCurve: 1
  m_RotationCurves: []
  m_CompressedRotationCurves: []
  m_PositionCurves:
  - curve:
      serializedVersion: 2
      m_Curve:
      - time: 0
        value: {x: -2.57999992, y: 2.33999991, z: -2.81999993}
        inSlope: {x: .419999957, y: .020000061, z: .966666639}
        outSlope: {x: .419999957, y: .020000061, z: .966666639}
        tangentMode: 0
      - time: 3
        value: {x: -1.32000005, y: 2.4000001, z: .0799999982}
        inSlope: {x: .0831543505, y: .00395974377, z: .191387028}
        outSlope: {x: .0831543505, y: .00395974377, z: .191387028}
        tangentMode: 0
      - time: 7.9666667
        value: {x: -2.57999992, y: 2.33999991, z: -2.81999993}
        inSlope: {x: -.253691256, y: -.0120805735, z: -.583892584}
        outSlope: {x: -.253691256, y: -.0120805735, z: -.583892584}
        tangentMode: 0
      m_PreInfinity: 2
      m_PostInfinity: 2
    path: Carrito
  m_ScaleCurves: []
  m_FloatCurves:
  - curve:
      serializedVersion: 2
      m_Curve:
      - time: 0
        value: 0
        inSlope: Infinity
        outSlope: Infinity
        tangentMode: 31
      - time: 7.9666667
        value: 0
        inSlope: Infinity
        outSlope: Infinity
        tangentMode: 31
      m_PreInfinity: 2
      m_PostInfinity: 2
    attribute: m_IsActive
    path: AndamioFarmH (1)
    classID: 1
    script: {fileID: 0}
  - curve:
      serializedVersion: 2
      m_Curve:
      - time: 0
        value: 0
        inSlope: Infinity
        outSlope: Infinity
        tangentMode: 31
      - time: 8
        value: 0
        inSlope: Infinity
        outSlope: Infinity
        tangentMode: 31
      m_PreInfinity: 2
      m_PostInfinity: 2
    attribute: m_Enabled
    path: Helmet
    classID: 137
    script: {fileID: 0}
  m_PPtrCurves: []
  m_SampleRate: 60
  m_WrapMode: 0
  m_Bounds:
    m_Center: {x: 0, y: 0, z: 0}
    m_Extent: {x: 0, y: 0, z: 0}
  m_ClipBindingConstant:
    genericBindings:
    - path: 3093006153
      attribute: 1
      script: {fileID: 0}
      classID: 4
      customType: 0
      isPPtrCurve: 0
    - path: 1009310713
      attribute: 2086281974
      script: {fileID: 0}
      classID: 1
      customType: 0
      isPPtrCurve: 0
    - path: 2097605520
      attribute: 3305885265
      script: {fileID: 0}
      classID: 137
      customType: 0
      isPPtrCurve: 0
    pptrCurveMapping: []
  m_AnimationClipSettings:
    serializedVersion: 2
    m_StartTime: 0
    m_StopTime: 8
    m_OrientationOffsetY: 0
    m_Level: 0
    m_CycleOffset: 0
    m_LoopTime: 1
    m_LoopBlend: 0
    m_LoopBlendOrientation: 0
    m_LoopBlendPositionY: 0
    m_LoopBlendPositionXZ: 0
    m_KeepOriginalOrientation: 0
    m_KeepOriginalPositionY: 1
    m_KeepOriginalPositionXZ: 0
    m_HeightFromFeet: 0
    m_Mirror: 0
  m_EditorCurves:
  - curve:
      serializedVersion: 2
      m_Curve:
      - time: 0
        value: -2.57999992
        inSlope: .419999957
        outSlope: .419999957
        tangentMode: 10
      - time: 3
        value: -1.32000005
        inSlope: .0831543505
        outSlope: .0831543505
        tangentMode: 10
      - time: 7.9666667
        value: -2.57999992
        inSlope: -.253691256
        outSlope: -.253691256
        tangentMode: 10
      m_PreInfinity: 2
      m_PostInfinity: 2
    attribute: m_LocalPosition.x
    path: Carrito
    classID: 4
    script: {fileID: 0}
  - curve:
      serializedVersion: 2
      m_Curve:
      - time: 0
        value: 2.33999991
        inSlope: .020000061
        outSlope: .020000061
        tangentMode: 10
      - time: 3
        value: 2.4000001
        inSlope: .00395974377
        outSlope: .00395974377
        tangentMode: 10
      - time: 7.9666667
        value: 2.33999991
        inSlope: -.0120805735
        outSlope: -.0120805735
        tangentMode: 10
      m_PreInfinity: 2
      m_PostInfinity: 2
    attribute: m_LocalPosition.y
    path: Carrito
    classID: 4
    script: {fileID: 0}
  - curve:
      serializedVersion: 2
      m_Curve:
      - time: 0
        value: -2.81999993
        inSlope: .966666639
        outSlope: .966666639
        tangentMode: 10
      - time: 3
        value: .0799999982
        inSlope: .191387028
        outSlope: .191387028
        tangentMode: 10
      - time: 7.9666667
        value: -2.81999993
        inSlope: -.583892584
        outSlope: -.583892584
        tangentMode: 10
      m_PreInfinity: 2
      m_PostInfinity: 2
    attribute: m_LocalPosition.z
    path: Carrito
    classID: 4
    script: {fileID: 0}
  - curve:
      serializedVersion: 2
      m_Curve:
      - time: 0
        value: 0
        inSlope: Infinity
        outSlope: Infinity
        tangentMode: 31
      - time: 7.9666667
        value: 0
        inSlope: Infinity
        outSlope: Infinity
        tangentMode: 31
      m_PreInfinity: 2
      m_PostInfinity: 2
    attribute: m_IsActive
    path: AndamioFarmH (1)
    classID: 1
    script: {fileID: 0}
  - curve:
      serializedVersion: 2
      m_Curve:
      - time: 0
        value: 0
        inSlope: Infinity
        outSlope: Infinity
        tangentMode: 31
      - time: 8
        value: 0
        inSlope: Infinity
        outSlope: Infinity
        tangentMode: 31
      m_PreInfinity: 2
      m_PostInfinity: 2
    attribute: m_Enabled
    path: Helmet
    classID: 137
    script: {fileID: 0}
  m_EulerEditorCurves: []
  m_HasGenericRootTransform: 0
  m_HasMotionFloatCurves: 0
  m_GenerateMotionCurves: 0
  m_Events: []
