%YAML 1.1
%TAG !u! tag:unity3d.com,2011:
--- !u!1 &168392
GameObject:
  m_ObjectHideFlags: 0
  m_PrefabParentObject: {fileID: 0}
  m_PrefabInternal: {fileID: 100100000}
  serializedVersion: 4
  m_Component:
  - 4: {fileID: 495294}
  - 114: {fileID: 11446872}
  - 119: {fileID: 11908386}
  m_Layer: 10
  m_Name: EntitySelection
  m_TagString: Untagged
  m_Icon: {fileID: 0}
  m_NavMeshLayer: 0
  m_StaticEditorFlags: 0
  m_IsActive: 1
--- !u!4 &495294
Transform:
  m_ObjectHideFlags: 1
  m_PrefabParentObject: {fileID: 0}
  m_PrefabInternal: {fileID: 100100000}
  m_GameObject: {fileID: 168392}
  m_LocalRotation: {x: .707106829, y: 0, z: 0, w: .707106709}
  m_LocalPosition: {x: .100000001, y: 53.6399994, z: 2.24000001}
  m_LocalScale: {x: 1.64999998, y: 1.26999998, z: 1.98000002}
  m_Children: []
  m_Father: {fileID: 0}
  m_RootOrder: 0
--- !u!114 &11446872
MonoBehaviour:
  m_ObjectHideFlags: 1
  m_PrefabParentObject: {fileID: 0}
  m_PrefabInternal: {fileID: 100100000}
  m_GameObject: {fileID: 168392}
  m_Enabled: 1
  m_EditorHideFlags: 0
  m_Script: {fileID: 11500000, guid: c4f3a2240e8be8c48b8dc39005ac3c20, type: 3}
  m_Name: 
  m_EditorClassIdentifier: 
--- !u!119 &11908386
Projector:
  m_ObjectHideFlags: 1
  m_PrefabParentObject: {fileID: 0}
  m_PrefabInternal: {fileID: 100100000}
  m_GameObject: {fileID: 168392}
  m_Enabled: 1
  serializedVersion: 2
  m_NearClipPlane: .100000001
  m_FarClipPlane: 100
  m_FieldOfView: 60
  m_AspectRatio: 1
  m_Orthographic: 1
  m_OrthographicSize: 2.74000001
  m_Material: {fileID: 2100000, guid: d7e7703eede09674aa0385b976896c3e, type: 2}
  m_IgnoreLayers:
    serializedVersion: 2
    m_Bits: 4294966783
--- !u!1001 &100100000
Prefab:
  m_ObjectHideFlags: 1
  serializedVersion: 2
  m_Modification:
    m_TransformParent: {fileID: 0}
    m_Modifications:
    - target: {fileID: 0}
      propertyPath: selection
      value: 
      objectReference: {fileID: 11908386}
    - target: {fileID: 0}
      propertyPath: m_LocalPosition.x
      value: 0
      objectReference: {fileID: 0}
    - target: {fileID: 0}
      propertyPath: m_LocalPosition.z
      value: 0
      objectReference: {fileID: 0}
    - target: {fileID: 0}
      propertyPath: m_LocalPosition.y
      value: 50
      objectReference: {fileID: 0}
    - target: {fileID: 0}
      propertyPath: m_OrthographicSize
      value: 3
      objectReference: {fileID: 0}
    - target: {fileID: 0}
      propertyPath: m_IgnoreLayers.m_Bits
      value: 4294966783
      objectReference: {fileID: 0}
    m_RemovedComponents: []
  m_ParentPrefab: {fileID: 0}
  m_RootGameObject: {fileID: 168392}
  m_IsPrefabParent: 1
